{
    "key": "group_544158e05dcb6",
    "title": "Stripe Settings",
    "fields": [
        {
            "key": "field_54415b9b1f1c0",
            "label": "<h1>Keys<\/h1>",
            "name": "",
            "prefix": "",
            "type": "message",
            "instructions": "",
            "required": 0,
            "conditional_logic": 0,
            "message": ""
        },
        {
            "key": "field_54415b739c720",
            "label": "Use Key",
            "name": "set_key",
            "prefix": "",
            "type": "select",
            "instructions": "",
            "required": 0,
            "conditional_logic": 0,
            "choices": {
                "Development": "Development",
                "Live": "Live"
            },
            "default_value": {
                "Development": "Development"
            },
            "allow_null": 0,
            "multiple": 0,
            "ui": 0,
            "ajax": 0,
            "placeholder": "",
            "disabled": 0,
            "readonly": 0
        },
        {
            "key": "field_54415976aa42b",
            "label": "<h2>Development Keys<\/h2>",
            "name": "",
            "prefix": "",
            "type": "message",
            "instructions": "",
            "required": 0,
            "conditional_logic": 0,
            "message": ""
        },
        {
            "key": "field_544159a0a7904",
            "label": "Publishable",
            "name": "dev_publishable",
            "prefix": "",
            "type": "text",
            "instructions": "",
            "required": 0,
            "conditional_logic": 0,
            "default_value": "",
            "placeholder": "",
            "prepend": "",
            "append": "",
            "maxlength": "",
            "readonly": 0,
            "disabled": 0
        },
        {
            "key": "field_544159ada7905",
            "label": "Private",
            "name": "dev_private",
            "prefix": "",
            "type": "text",
            "instructions": "",
            "required": 0,
            "conditional_logic": 0,
            "default_value": "",
            "placeholder": "",
            "prepend": "",
            "append": "",
            "maxlength": "",
            "readonly": 0,
            "disabled": 0
        },
        {
            "key": "field_54415987aa42c",
            "label": "<h2>Live Keys<\/h2>",
            "name": "",
            "prefix": "",
            "type": "message",
            "instructions": "",
            "required": 0,
            "conditional_logic": 0,
            "message": ""
        },
        {
            "key": "field_544159c6a7906",
            "label": "Publishable",
            "name": "live_publishable",
            "prefix": "",
            "type": "text",
            "instructions": "",
            "required": 0,
            "conditional_logic": 0,
            "default_value": "",
            "placeholder": "",
            "prepend": "",
            "append": "",
            "maxlength": "",
            "readonly": 0,
            "disabled": 0
        },
        {
            "key": "field_544159eba7907",
            "label": "Private",
            "name": "live_private",
            "prefix": "",
            "type": "text",
            "instructions": "",
            "required": 0,
            "conditional_logic": 0,
            "default_value": "",
            "placeholder": "",
            "prepend": "",
            "append": "",
            "maxlength": "",
            "readonly": 0,
            "disabled": 0
        }
    ],
    "location": [
        [
            {
                "param": "options_page",
                "operator": "==",
                "value": "acf-options-stripe-settings"
            }
        ]
    ],
    "menu_order": 0,
    "position": "normal",
    "style": "default",
    "label_placement": "left",
    "instruction_placement": "label",
    "hide_on_screen": ""
}